\relax 
\providecommand*\new@tpo@label[2]{}
\@writefile{toc}{\contentsline {chapter}{\numberline {1}API}{1}\protected@file@percent }
\@writefile{lof}{\addvspace {10\p@ }}
\@writefile{lot}{\addvspace {10\p@ }}
\@writefile{toc}{\contentsline {section}{\numberline {1.1}Allgemeinen}{1}\protected@file@percent }
\@writefile{toc}{\contentsline {section}{\numberline {1.2}Endpünkte}{1}\protected@file@percent }
\@writefile{toc}{\contentsline {paragraph}{\nonumberline Titel: User registrieren \newline  Endpunkt: register\_user.php \newline  Beschreibung: \newline  }{1}\protected@file@percent }
\@writefile{toc}{\contentsline {paragraph}{\nonumberline Titel: User login \newline  Endpunkt: login\_user.php \newline  Beschreibung: \newline  }{1}\protected@file@percent }
\@writefile{toc}{\contentsline {paragraph}{\nonumberline Titel: Validate Token\newline  Endpunkt: validate\_token.php \newline  Beschreibung:\newline  }{1}\protected@file@percent }
\@writefile{toc}{\contentsline {paragraph}{\nonumberline Titel: Update User\newline  Endpunkt: update\_user.php \newline  Beschreibung: \newline  }{2}\protected@file@percent }
\@writefile{toc}{\contentsline {paragraph}{\nonumberline Titel: Delete User\newline  Endpunkt: delete\_user.php?id=?? \newline  Beschreibung: \newline  }{2}\protected@file@percent }
\@writefile{toc}{\contentsline {paragraph}{\nonumberline Titel: User Historie\newline  Endpunkt: historie\_user.php?id=?? \newline  Beschreibung: \newline  }{2}\protected@file@percent }
\@writefile{toc}{\contentsline {paragraph}{\nonumberline Titel: Create a new travel\newline  Endpunkt: create\_travel.php \newline  Beschreibung: \newline  }{2}\protected@file@percent }
\@writefile{toc}{\contentsline {paragraph}{\nonumberline Titel: read all travel\newline  Endpunkt: read\_all.php \newline  Beschreibung:\newline  }{2}\protected@file@percent }
\@writefile{toc}{\contentsline {paragraph}{\nonumberline Titel: search travel\newline  Endpunkt: search\_travel.php \newline  Beschreibung: \newline  }{3}\protected@file@percent }
\@writefile{toc}{\contentsline {paragraph}{\nonumberline Titel: update travel\newline  Endpunkt: update\_travel.php \newline  Beschreibung: \newline  }{3}\protected@file@percent }
\@writefile{toc}{\contentsline {paragraph}{\nonumberline Titel: delete travel\newline  Endpunkt: delete\_travel.php?id=?? \newline  Beschreibung: \newline  }{3}\protected@file@percent }
